test_run_dir/l6t4test/up_down_counter.vcd
$date
2022-09-19T20:50+0000
$end
$version
0.2
$end
$comment

$end
$timescale 1ns  $end
$scope module up_down_counter $end
 $var wire 4 ! io_out $end
 $var wire 4 " _GEN_2 $end
 $var wire 4 # _counter2_T_1 $end
 $var wire 1 $ io_up_down $end
 $var wire 4 % counter2 $end
 $var wire 5 & _counter_T $end
 $var wire 4 ' _GEN_1 $end
 $var wire 4 ( _counter_T_1 $end
 $var wire 4 ) counter $end
 $var wire 1 * clock $end
 $var wire 5 + _counter2_T $end
 $var wire 4 , _GEN_0 $end
 $var wire 1 - reset $end
 $var wire 4 . _GEN_3 $end
$upscope $end
$enddefinitions $end
$dumpvars
b0000 '
b0000 .
b0000 (
0-
b0000 )
b0000 !
b00000 &
b0000 "
b0000 #
0*
b0000 ,
b0000 %
0$
b00000 +
$end
#0
1-
b1111 .
b00001 &
b1111 #
b11111 +
b0001 (
b1111 ,
#1
b1111 %
b1110 .
b1110 #
1*
b01110 +
b1110 ,
#6
0-
0*
#11
b1110 %
b1101 .
b1101 #
1*
b01101 +
b1101 ,
#16
0*
#21
b1101 %
b1100 .
b1100 #
1*
b01100 +
b1100 ,
#26
0*
#31
b1100 %
b1011 .
b1011 #
1*
b01011 +
b1011 ,
#36
0*
#41
b1011 %
b1010 .
b1010 #
1*
b01010 +
b1010 ,
#46
0*
#51
b1010 %
b1001 .
b1001 #
1*
b01001 +
b1001 ,
#56
0*
#61
b1001 %
b1000 .
b1000 #
1*
b01000 +
b1000 ,
#66
0*
#71
b1000 %
b0111 .
b0111 #
1*
b00111 +
b0111 ,
#76
0*
#81
b0111 %
b0110 .
b0110 #
1*
b00110 +
b0110 ,
#86
0*
#91
b0110 %
b0101 .
b0101 #
1*
b00101 +
b0101 ,
#96
0*
#101
b0101 %
b0100 .
b0100 #
1*
b00100 +
b0100 ,
#106
0*
#111
b0100 %
b0011 .
b0011 #
1*
b00011 +
b0011 ,
#116
0*
#121
b0011 %
b0010 .
b0010 #
1*
b00010 +
b0010 ,
#126
0*
#131
b0010 %
b0001 .
b0001 #
1*
b00001 +
b0001 ,
#136
0*
#141
b0001 %
b0000 .
b0000 #
1*
b00000 +
b0000 ,
#146
0*
#151
b0000 %
b1111 .
b1111 #
1*
b11111 +
b1111 ,
#156
0*
#161
b1111 %
b1110 .
b1110 #
1*
b01110 +
b1110 ,
#166
0*
#171
b1110 %
b1101 .
b1101 #
1*
b01101 +
b1101 ,
#176
0*
#181
b1101 %
b1100 .
b1100 #
1*
b01100 +
b1100 ,
#186
0*
#191
b1100 %
b1011 .
b1011 #
1*
b01011 +
b1011 ,
#196
0*
#201
b1011 %
b1010 .
b1010 #
1*
b01010 +
b1010 ,
#206
0*
#211
b1010 %
b1001 .
b1001 #
1*
b01001 +
b1001 ,
