test_run_dir/l7t1test/state_machine.vcd
$date
2022-09-22T06:58+0000
$end
$version
0.2
$end
$comment

$end
$timescale 1ns  $end
$scope module state_machine $end
 $var wire 1 ! io_f2 $end
 $var wire 3 " _GEN_37 $end
 $var wire 2 # _GEN_16 $end
 $var wire 3 $ _GEN_43 $end
 $var wire 3 % io_out $end
 $var wire 3 & _GEN_2 $end
 $var wire 2 ' _GEN_10 $end
 $var wire 1 ( _T $end
 $var wire 1 ) _GEN_31 $end
 $var wire 2 * _GEN_19 $end
 $var wire 3 + _GEN_25 $end
 $var wire 2 , _GEN_8 $end
 $var wire 3 - _GEN_42 $end
 $var wire 3 . _GEN_39 $end
 $var wire 3 / _GEN_24 $end
 $var wire 3 0 _GEN_30 $end
 $var wire 3 1 _GEN_27 $end
 $var wire 1 2 _GEN_33 $end
 $var wire 3 3 state $end
 $var wire 2 4 _GEN_12 $end
 $var wire 2 5 _GEN_15 $end
 $var wire 1 6 io_f1 $end
 $var wire 3 7 _GEN_36 $end
 $var wire 2 8 _GEN_18 $end
 $var wire 3 9 _GEN_4 $end
 $var wire 3 : _GEN_41 $end
 $var wire 1 ; _GEN_35 $end
 $var wire 1 < clock $end
 $var wire 3 = _GEN_23 $end
 $var wire 3 > _GEN_44 $end
 $var wire 3 ? _GEN_38 $end
 $var wire 2 @ _GEN_17 $end
 $var wire 1 A io_r2 $end
 $var wire 3 B _GEN_26 $end
 $var wire 3 C _GEN_32 $end
 $var wire 3 D _GEN_20 $end
 $var wire 1 E _GEN_29 $end
 $var wire 3 F _GEN_6 $end
 $var wire 2 G _GEN_14 $end
 $var wire 1 H reset $end
 $var wire 1 I io_r1 $end
 $var wire 3 J _GEN_34 $end
 $var wire 3 K _GEN_28 $end
 $var wire 3 L _GEN_40 $end
$upscope $end
$enddefinitions $end
$dumpvars
b000 F
b000 1
0;
b00 '
0<
b000 3
b000 +
b000 J
06
b00 *
b000 B
b000 -
0!
b00 @
b000 C
b000 .
b00 #
b000 &
b000 D
b000 =
02
b000 >
b000 ?
b00 4
0I
b000 "
b00 5
b000 9
b000 $
b000 :
b000 %
b00 8
0E
0(
b00 G
0)
b000 K
0H
b000 L
b000 7
b00 ,
b000 /
0A
b000 0
$end
#0
b100 B
b001 -
b101 C
b001 &
b001 J
b100 D
b10 '
1E
b001 L
b001 7
1(
b100 /
b101 0
b001 ?
b111 1
b10 8
b11 G
b11 #
b11 *
b001 9
1H
b111 +
b10 ,
#1
1<
#6
1!
b011 B
b000 0
0<
b101 F
b100 C
b101 &
b101 9
0H
b000 +
b101 /
b101 >
1)
#11
b101 3
b101 0
b100 ?
1<
b100 -
b100 J
b101 K
b100 L
b100 7
0(
b100 >
#16
0<
#21
b100 3
b011 -
1<
b111 %
b111 .
b001 J
b100 K
b011 L
b011 7
b011 >
b100 0
b011 ?
b111 "
b111 $
b111 :
#26
0<
#31
b011 3
b000 -
1<
b000 %
b000 .
b000 D
b011 K
b000 L
b001 7
b000 >
b011 0
b000 ?
b000 "
b000 $
b000 :
#36
0<
#41
b000 3
b000 0
b001 ?
1<
b001 -
b100 D
b000 K
b001 L
1(
b101 >
#46
0<
#51
b101 3
b101 0
b100 ?
1<
b100 -
b100 J
b101 K
b100 L
b100 7
0(
b100 >
#56
0<
#61
b100 3
b011 -
1<
b111 %
b111 .
b001 J
b100 K
b011 L
b011 7
b011 >
b100 0
b011 ?
b111 "
b111 $
b111 :
#66
0<
#71
b011 3
b000 -
1<
b000 %
b000 .
b000 D
b011 K
b000 L
b001 7
b000 >
b011 0
b000 ?
b000 "
b000 $
b000 :
#76
0<
#81
b000 3
b000 0
b001 ?
1<
b001 -
b100 D
b000 K
b001 L
1(
b101 >
#86
0<
#91
b101 3
b101 0
b100 ?
1<
b100 -
b100 J
b101 K
b100 L
b100 7
0(
b100 >
#96
0<
#101
b100 3
b011 -
1<
b111 %
b111 .
b001 J
b100 K
b011 L
b011 7
b011 >
b100 0
b011 ?
b111 "
b111 $
b111 :
#106
0<
#111
b011 3
b000 -
1<
b000 %
b000 .
b000 D
b011 K
b000 L
b001 7
b000 >
b011 0
b000 ?
b000 "
b000 $
b000 :
#116
0<
#121
b000 3
b000 0
b001 ?
1<
b001 -
b100 D
b000 K
b001 L
1(
b101 >
#126
0<
#131
b101 3
b101 0
b100 ?
1<
b100 -
b100 J
b101 K
b100 L
b100 7
0(
b100 >
#136
0<
#141
b100 3
b011 -
1<
b111 %
b111 .
b001 J
b100 K
b011 L
b011 7
b011 >
b100 0
b011 ?
b111 "
b111 $
b111 :
#146
0<
#151
b011 3
b000 -
1<
b000 %
b000 .
b000 D
b011 K
b000 L
b001 7
b000 >
b011 0
b000 ?
b000 "
b000 $
b000 :
#156
0<
#161
b000 3
b000 0
b001 ?
1<
b001 -
b100 D
b000 K
b001 L
1(
b101 >
#166
0<
#171
b101 3
b101 0
b100 ?
1<
b100 -
b100 J
b101 K
b100 L
b100 7
0(
b100 >
#176
0<
#181
b100 3
b011 -
1<
b111 %
b111 .
b001 J
b100 K
b011 L
b011 7
b011 >
b100 0
b011 ?
b111 "
b111 $
b111 :
#186
0<
#191
b011 3
b000 -
1<
b000 %
b000 .
b000 D
b011 K
b000 L
b001 7
b000 >
b011 0
b000 ?
b000 "
b000 $
b000 :
#196
0<
#201
b000 3
b000 0
b001 ?
1<
b001 -
b100 D
b000 K
b001 L
1(
b101 >
#206
0!
b100 B
b101 0
0<
b000 F
b101 C
b001 &
b001 9
b111 +
b100 /
b000 >
0)
