test_run_dir/lab6test/counter_xor.vcd
$date
2022-09-19T07:49+0000
$end
$version
0.2
$end
$comment

$end
$timescale 1ns  $end
$scope module counter_xor $end
 $var wire 1 ! io_out $end
 $var wire 4 " _T $end
 $var wire 5 # _counter_T $end
 $var wire 1 $ _GEN_1 $end
 $var wire 4 % _counter_T_1 $end
 $var wire 4 & counter $end
 $var wire 1 ' clock $end
 $var wire 4 ( _GEN_0 $end
 $var wire 1 ) reset $end
$upscope $end
$enddefinitions $end
$dumpvars
b00000 #
0)
b0000 (
0'
b0000 %
b0000 "
0$
0!
b0000 &
$end
#0
b0001 %
b00001 #
b0001 (
1)
#1
1'
#6
0'
0)
#11
b0010 %
b0001 &
b00010 #
1'
b0010 (
#16
0'
#21
b0011 %
b0010 &
b00011 #
1'
b0011 (
#26
0'
#31
b0100 %
b0011 &
b00100 #
1'
b0100 (
#36
0'
#41
b0101 %
b0100 &
b00101 #
1'
b0101 (
#46
0'
#51
b0110 %
b0101 &
b00110 #
1'
b0110 (
#56
0'
#61
b0111 %
b0110 &
b00111 #
1'
b0111 (
#66
0'
#71
b1000 %
b0111 &
b01000 #
1'
b1000 (
#76
0'
#81
b1001 %
b0001 "
b1000 &
b01001 #
1'
1$
b0000 (
#86
0'
#91
b0001 %
b0000 "
b0000 &
b00001 #
1'
0$
b0001 (
#96
0'
#101
b0010 %
b0001 &
b00010 #
1'
b0010 (
#106
0'
#111
b0011 %
b0010 &
b00011 #
1'
b0011 (
#116
0'
#121
b0100 %
b0011 &
b00100 #
1'
b0100 (
#126
0'
#131
b0101 %
b0100 &
b00101 #
1'
b0101 (
#136
0'
#141
b0110 %
b0101 &
b00110 #
1'
b0110 (
#146
0'
#151
b0111 %
b0110 &
b00111 #
1'
b0111 (
#156
0'
#161
b1000 %
b0111 &
b01000 #
1'
b1000 (
#166
0'
#171
b1001 %
b0001 "
b1000 &
b01001 #
1'
1$
b0000 (
#176
0'
#181
b0001 %
b0000 "
b0000 &
b00001 #
1'
0$
b0001 (
#186
0'
#191
b0010 %
b0001 &
b00010 #
1'
b0010 (
#196
0'
#201
b0011 %
b0010 &
b00011 #
1'
b0011 (
#206
0'
#211
b0100 %
b0011 &
b00100 #
1'
b0100 (
