test_run_dir/LAB8_T1_TEST/memoryASSIGN.vcd
$date
2022-09-25T12:22+0000
$end
$version
0.2
$end
$comment

$end
$timescale 1ns  $end
$scope module memoryASSIGN $end
 $var wire 32 D _GEN_2 $end
 $var wire 32 T io_memory_3 $end
 $var wire 32 X io_requestor_2_bits $end
 $var wire 1 i q1 $end
 $var wire 32 o _GEN_13 $end
 $var wire 5 p io_Readaddr $end
 $var wire 32 r io_memory_0 $end
 $var wire 1 { io_requestor_1_valid $end
 $var wire 32 "/ io_requestor_3_bits $end
 $var wire 32 "B mem_1 $end
 $var wire 32 "G _GEN_33 $end
 $var wire 32 "I data_0 $end
 $var wire 1 "Q io_requestor_2_ready $end
 $var wire 1 "T _GEN_54 $end
 $var wire 32 "V _GEN_12 $end
 $var wire 32 "\ _GEN_15 $end
 $var wire 1 "^ io_requestor_0_valid $end
 $var wire 32 "x data_3 $end
 $var wire 10 "{ mem_0_MPORT_4_addr_pipe_0 $end
 $var wire 1 "| q3 $end
 $var wire 10 #3 mem_1_MPORT_4_addr_pipe_0 $end
 $var wire 32 #5 io_memory_2 $end
 $var wire 32 #6 _GEN_1 $end
 $var wire 1 #E q0 $end
 $var wire 32 #R mem_3 $end
 $var wire 1 #X clock $end
 $var wire 32 #Y _GEN_35 $end
 $var wire 32 #a data_2 $end
 $var wire 1 #r io_requestor_3_valid $end
 $var wire 5 #t io_Writeaddr $end
 $var wire 1 $( _GEN_26 $end
 $var wire 10 $- mem_2_MPORT_4_addr_pipe_0 $end
 $var wire 32 $. _GEN_32 $end
 $var wire 1 $4 io_requestor_1_ready $end
 $var wire 32 $; mem_0 $end
 $var wire 32 $? io_requestor_0_bits $end
 $var wire 1 $J arb_priority $end
 $var wire 1 $P q2 $end
 $var wire 10 $Q mem_3_MPORT_4_addr_pipe_0 $end
 $var wire 32 $U _GEN_14 $end
 $var wire 1 $[ io_requestor_2_valid $end
 $var wire 32 $\ _GEN_0 $end
 $var wire 32 $e io_memory_1 $end
 $var wire 1 $k io_requestor_0_ready $end
 $var wire 1 $n reset $end
 $var wire 32 $v _GEN_3 $end
 $var wire 32 $w io_requestor_1_bits $end
 $var wire 1 ${ _GEN_46 $end
 $var wire 32 %' _GEN_34 $end
 $var wire 32 %( mem_2 $end
 $var wire 1 %* io_requestor_3_ready $end
 $var wire 32 %6 data_1 $end
  $scope module q0 $end
   $var wire 1 8 do_deq $end
   $var wire 1 K full $end
   $var wire 1 W ptr_match $end
   $var wire 1 ] _GEN_6 $end
   $var wire 1 ", reset $end
   $var wire 1 "0 do_enq $end
   $var wire 1 "6 io_enq_valid $end
   $var wire 1 ": io_deq_ready $end
   $var wire 1 "A _value_T_3 $end
   $var wire 32 "t ram $end
   $var wire 2 #- _value_T $end
   $var wire 1 #0 value_1 $end
   $var wire 1 #2 _GEN_5 $end
   $var wire 1 #S _empty_T $end
   $var wire 1 #\ empty $end
   $var wire 2 $) _value_T_2 $end
   $var wire 1 $* _GEN_7 $end
   $var wire 32 $+ io_enq_bits $end
   $var wire 32 $2 io_deq_bits $end
   $var wire 1 $N io_enq_ready $end
   $var wire 1 $_ _T $end
   $var wire 1 $h io_deq_valid $end
   $var wire 1 $l value $end
   $var wire 1 $o _value_T_1 $end
   $var wire 1 %1 clock $end
   $var wire 1 %4 maybe_full $end
    $scope module ram $end
     $var wire 32 ) MPORT $end
      $scope module io_deq_bits_MPORT $end
       $var wire 1 S addr $end
       $var wire 1 "[ en $end
       $var wire 32 "h data $end
       $var wire 1 $i clk $end
      $upscope $end
      $scope module MPORT $end
       $var wire 32 "- pipeline_data_0 $end
       $var wire 1 "M mask $end
       $var wire 1 "s addr $end
       $var wire 1 #, valid $end
       $var wire 1 #b pipeline_valid_0 $end
       $var wire 1 $R clk $end
       $var wire 1 $V en $end
       $var wire 1 $d pipeline_addr_0 $end
       $var wire 32 %$ data $end
      $upscope $end
    $upscope $end
  $upscope $end
  $scope module q1 $end
   $var wire 1 H _GEN_5 $end
   $var wire 1 M io_enq_valid $end
   $var wire 1 Y reset $end
   $var wire 1 \ do_enq $end
   $var wire 1 ^ io_deq_ready $end
   $var wire 1 m value_1 $end
   $var wire 1 t ptr_match $end
   $var wire 2 "$ _value_T $end
   $var wire 2 "( _value_T_2 $end
   $var wire 1 "5 full $end
   $var wire 1 "E _T $end
   $var wire 1 "z _empty_T $end
   $var wire 1 "} empty $end
   $var wire 32 #8 io_deq_bits $end
   $var wire 1 #B _GEN_7 $end
   $var wire 1 #D maybe_full $end
   $var wire 1 #O clock $end
   $var wire 1 #e io_enq_ready $end
   $var wire 1 #s do_deq $end
   $var wire 1 #v io_deq_valid $end
   $var wire 32 #w io_enq_bits $end
   $var wire 1 #z _value_T_1 $end
   $var wire 1 $3 value $end
   $var wire 32 $8 ram $end
   $var wire 1 $m _GEN_6 $end
   $var wire 1 %" _value_T_3 $end
    $scope module ram $end
     $var wire 32 e MPORT $end
      $scope module MPORT $end
       $var wire 1 : mask $end
       $var wire 1 N pipeline_valid_0 $end
       $var wire 32 j pipeline_data_0 $end
       $var wire 1 ". addr $end
       $var wire 1 "l clk $end
       $var wire 1 #J valid $end
       $var wire 1 #V en $end
       $var wire 32 #d data $end
       $var wire 1 $7 pipeline_addr_0 $end
      $upscope $end
      $scope module io_deq_bits_MPORT $end
       $var wire 1 "k addr $end
       $var wire 1 #} en $end
       $var wire 32 $< data $end
       $var wire 1 $W clk $end
      $upscope $end
    $upscope $end
  $upscope $end
  $scope module q2 $end
   $var wire 32 9 ram $end
   $var wire 1 < empty $end
   $var wire 1 B maybe_full $end
   $var wire 2 I _value_T $end
   $var wire 1 d _GEN_7 $end
   $var wire 1 u _empty_T $end
   $var wire 1 y _value_T_1 $end
   $var wire 1 | clock $end
   $var wire 1 "? ptr_match $end
   $var wire 1 "P value $end
   $var wire 1 "i io_enq_ready $end
   $var wire 32 "q io_enq_bits $end
   $var wire 32 "y io_deq_bits $end
   $var wire 1 #( full $end
   $var wire 1 #) do_deq $end
   $var wire 1 #1 _value_T_3 $end
   $var wire 1 #7 io_deq_valid $end
   $var wire 1 #@ _GEN_6 $end
   $var wire 1 $6 reset $end
   $var wire 1 $O io_deq_ready $end
   $var wire 1 $Z _T $end
   $var wire 1 $f value_1 $end
   $var wire 2 $g _value_T_2 $end
   $var wire 1 $q do_enq $end
   $var wire 1 $y _GEN_5 $end
   $var wire 1 $| io_enq_valid $end
    $scope module ram $end
     $var wire 32 "* MPORT $end
      $scope module MPORT $end
       $var wire 1 * clk $end
       $var wire 32 6 pipeline_data_0 $end
       $var wire 32 "3 data $end
       $var wire 1 "] pipeline_valid_0 $end
       $var wire 1 "d valid $end
       $var wire 1 "~ en $end
       $var wire 1 #` pipeline_addr_0 $end
       $var wire 1 $0 mask $end
       $var wire 1 %: addr $end
      $upscope $end
      $scope module io_deq_bits_MPORT $end
       $var wire 32 + data $end
       $var wire 1 #j clk $end
       $var wire 1 $' addr $end
       $var wire 1 $~ en $end
      $upscope $end
    $upscope $end
  $upscope $end
  $scope module arb_priority $end
   $var wire 1 7 io_in_2_valid $end
   $var wire 32 Q io_in_2_bits $end
   $var wire 1 n io_in_3_ready $end
   $var wire 32 "1 io_in_3_bits $end
   $var wire 32 "X io_out_bits $end
   $var wire 1 "u io_in_1_valid $end
   $var wire 1 #! _grant_T $end
   $var wire 1 #? io_in_2_ready $end
   $var wire 32 #F _GEN_1 $end
   $var wire 32 $/ io_in_0_bits $end
   $var wire 1 $D io_in_0_valid $end
   $var wire 32 $L _GEN_3 $end
   $var wire 1 $t _grant_T_1 $end
   $var wire 32 $z io_in_1_bits $end
   $var wire 1 $} io_in_1_ready $end
  $upscope $end
  $scope module q3 $end
   $var wire 1 ! clock $end
   $var wire 1 / _empty_T $end
   $var wire 2 U _value_T $end
   $var wire 32 ` io_deq_bits $end
   $var wire 32 a ram $end
   $var wire 1 s _value_T_3 $end
   $var wire 1 x io_enq_ready $end
   $var wire 1 "% io_deq_valid $end
   $var wire 1 "4 do_deq $end
   $var wire 1 "9 reset $end
   $var wire 1 "; _T $end
   $var wire 32 "= io_enq_bits $end
   $var wire 1 "J _GEN_6 $end
   $var wire 2 "f _value_T_2 $end
   $var wire 1 #; value_1 $end
   $var wire 1 #K do_enq $end
   $var wire 1 #N io_deq_ready $end
   $var wire 1 #x ptr_match $end
   $var wire 1 #{ full $end
   $var wire 1 $" maybe_full $end
   $var wire 1 $& io_enq_valid $end
   $var wire 1 $: _GEN_5 $end
   $var wire 1 $C _value_T_1 $end
   $var wire 1 $Y empty $end
   $var wire 1 %+ value $end
   $var wire 1 %7 _GEN_7 $end
    $scope module ram $end
     $var wire 32 #U MPORT $end
      $scope module io_deq_bits_MPORT $end
       $var wire 1 1 addr $end
       $var wire 1 l en $end
       $var wire 32 #= data $end
       $var wire 1 #M clk $end
      $upscope $end
      $scope module MPORT $end
       $var wire 1 ~ en $end
       $var wire 1 "_ mask $end
       $var wire 1 ## pipeline_addr_0 $end
       $var wire 1 #+ valid $end
       $var wire 1 #g clk $end
       $var wire 1 #p addr $end
       $var wire 1 $9 pipeline_valid_0 $end
       $var wire 32 $s pipeline_data_0 $end
       $var wire 32 %3 data $end
      $upscope $end
    $upscope $end
  $upscope $end
  $scope module mem_0 $end
   $var wire 32 E MPORT $end
   $var wire 32 V MPORT_3 $end
   $var wire 32 "# MPORT_2 $end
   $var wire 32 $# MPORT_1 $end
    $scope module MPORT_1 $end
     $var wire 1 " clk $end
     $var wire 32 "c pipeline_data_0 $end
     $var wire 1 "m mask $end
     $var wire 1 #L en $end
     $var wire 10 #o addr $end
     $var wire 1 $B pipeline_valid_0 $end
     $var wire 10 %, pipeline_addr_0 $end
     $var wire 1 %/ valid $end
     $var wire 32 %; data $end
    $upscope $end
    $scope module MPORT_2 $end
     $var wire 10 # pipeline_addr_0 $end
     $var wire 1 , pipeline_valid_0 $end
     $var wire 1 = en $end
     $var wire 32 k data $end
     $var wire 1 "U clk $end
     $var wire 32 #$ pipeline_data_0 $end
     $var wire 1 #c mask $end
     $var wire 1 $S valid $end
     $var wire 10 $a addr $end
    $upscope $end
    $scope module MPORT_3 $end
     $var wire 10 & addr $end
     $var wire 1 > pipeline_valid_0 $end
     $var wire 10 C pipeline_addr_0 $end
     $var wire 32 "H data $end
     $var wire 1 "j valid $end
     $var wire 1 #* clk $end
     $var wire 1 #C en $end
     $var wire 32 #H pipeline_data_0 $end
     $var wire 1 $A mask $end
    $upscope $end
    $scope module MPORT_4 $end
     $var wire 1 2 en $end
     $var wire 10 q addr $end
     $var wire 32 #> data $end
     $var wire 1 $@ clk $end
    $upscope $end
    $scope module MPORT $end
     $var wire 10 J pipeline_addr_0 $end
     $var wire 32 } data $end
     $var wire 32 "R pipeline_data_0 $end
     $var wire 1 #/ en $end
     $var wire 1 #< clk $end
     $var wire 1 #k mask $end
     $var wire 1 $> valid $end
     $var wire 10 $r addr $end
     $var wire 1 %- pipeline_valid_0 $end
    $upscope $end
  $upscope $end
  $scope module mem_2 $end
   $var wire 32 . MPORT_1 $end
   $var wire 32 "+ MPORT_3 $end
   $var wire 32 #I MPORT $end
   $var wire 32 #n MPORT_2 $end
    $scope module MPORT_1 $end
     $var wire 1 $ mask $end
     $var wire 32 - pipeline_data_0 $end
     $var wire 1 ? pipeline_valid_0 $end
     $var wire 10 "& addr $end
     $var wire 1 "e valid $end
     $var wire 32 #] data $end
     $var wire 1 #h en $end
     $var wire 1 $$ clk $end
     $var wire 10 $M pipeline_addr_0 $end
    $upscope $end
    $scope module MPORT_2 $end
     $var wire 1 % clk $end
     $var wire 1 0 valid $end
     $var wire 32 @ pipeline_data_0 $end
     $var wire 1 h en $end
     $var wire 1 "! mask $end
     $var wire 1 "S pipeline_valid_0 $end
     $var wire 10 #% addr $end
     $var wire 10 #l pipeline_addr_0 $end
     $var wire 32 $G data $end
    $upscope $end
    $scope module MPORT_3 $end
     $var wire 32 b pipeline_data_0 $end
     $var wire 1 "8 clk $end
     $var wire 1 "` mask $end
     $var wire 1 #^ pipeline_valid_0 $end
     $var wire 1 #f valid $end
     $var wire 10 #i addr $end
     $var wire 1 #~ en $end
     $var wire 10 $, pipeline_addr_0 $end
     $var wire 32 %0 data $end
    $upscope $end
    $scope module MPORT_4 $end
     $var wire 32 c data $end
     $var wire 1 f en $end
     $var wire 1 #. clk $end
     $var wire 10 $c addr $end
    $upscope $end
    $scope module MPORT $end
     $var wire 10 z addr $end
     $var wire 1 "' en $end
     $var wire 32 "F pipeline_data_0 $end
     $var wire 1 "g valid $end
     $var wire 32 #A data $end
     $var wire 1 $E pipeline_valid_0 $end
     $var wire 1 $X clk $end
     $var wire 10 $x pipeline_addr_0 $end
     $var wire 1 %8 mask $end
    $upscope $end
  $upscope $end
  $scope module mem_1 $end
   $var wire 32 "@ MPORT_1 $end
   $var wire 32 #Q MPORT_3 $end
   $var wire 32 $u MPORT $end
   $var wire 32 %& MPORT_2 $end
    $scope module MPORT_3 $end
     $var wire 1 ' valid $end
     $var wire 1 F en $end
     $var wire 32 g data $end
     $var wire 1 "C pipeline_valid_0 $end
     $var wire 10 "b pipeline_addr_0 $end
     $var wire 1 "o clk $end
     $var wire 1 #[ mask $end
     $var wire 32 $] pipeline_data_0 $end
     $var wire 10 $b addr $end
    $upscope $end
    $scope module MPORT_4 $end
     $var wire 10 3 addr $end
     $var wire 32 "< data $end
     $var wire 1 #T en $end
     $var wire 1 $1 clk $end
    $upscope $end
    $scope module MPORT_1 $end
     $var wire 1 5 pipeline_valid_0 $end
     $var wire 1 P en $end
     $var wire 1 w mask $end
     $var wire 10 "7 pipeline_addr_0 $end
     $var wire 10 #9 addr $end
     $var wire 1 #W valid $end
     $var wire 32 $= pipeline_data_0 $end
     $var wire 32 $I data $end
     $var wire 1 %. clk $end
    $upscope $end
    $scope module MPORT_2 $end
     $var wire 1 G pipeline_valid_0 $end
     $var wire 1 Z clk $end
     $var wire 10 "N pipeline_addr_0 $end
     $var wire 1 "n mask $end
     $var wire 1 "v valid $end
     $var wire 1 #_ en $end
     $var wire 10 #| addr $end
     $var wire 32 $H pipeline_data_0 $end
     $var wire 32 %% data $end
    $upscope $end
    $scope module MPORT $end
     $var wire 1 "" en $end
     $var wire 32 "W pipeline_data_0 $end
     $var wire 1 "a mask $end
     $var wire 1 #& pipeline_valid_0 $end
     $var wire 10 #: addr $end
     $var wire 1 #m valid $end
     $var wire 1 #u clk $end
     $var wire 32 $K data $end
     $var wire 10 %# pipeline_addr_0 $end
    $upscope $end
  $upscope $end
  $scope module mem_3 $end
   $var wire 32 _ MPORT $end
   $var wire 32 "O MPORT_2 $end
   $var wire 32 $5 MPORT_1 $end
   $var wire 32 %5 MPORT_3 $end
    $scope module MPORT_1 $end
     $var wire 1 ( valid $end
     $var wire 10 R addr $end
     $var wire 10 [ pipeline_addr_0 $end
     $var wire 1 "D pipeline_valid_0 $end
     $var wire 32 "K pipeline_data_0 $end
     $var wire 32 "p data $end
     $var wire 1 "r en $end
     $var wire 1 #q clk $end
     $var wire 1 $` mask $end
    $upscope $end
    $scope module MPORT_2 $end
     $var wire 1 4 mask $end
     $var wire 10 "2 addr $end
     $var wire 32 "Z pipeline_data_0 $end
     $var wire 32 #P data $end
     $var wire 1 #Z pipeline_valid_0 $end
     $var wire 1 #y valid $end
     $var wire 1 $p en $end
     $var wire 1 %) clk $end
     $var wire 10 %9 pipeline_addr_0 $end
    $upscope $end
    $scope module MPORT_3 $end
     $var wire 10 ; pipeline_addr_0 $end
     $var wire 1 A clk $end
     $var wire 1 v mask $end
     $var wire 1 "Y en $end
     $var wire 1 #" valid $end
     $var wire 10 #' addr $end
     $var wire 32 #4 pipeline_data_0 $end
     $var wire 32 $T data $end
     $var wire 1 $^ pipeline_valid_0 $end
    $upscope $end
    $scope module MPORT $end
     $var wire 32 L data $end
     $var wire 1 O en $end
     $var wire 1 ") pipeline_valid_0 $end
     $var wire 1 "> valid $end
     $var wire 32 "L pipeline_data_0 $end
     $var wire 1 #G mask $end
     $var wire 10 $F addr $end
     $var wire 10 $j pipeline_addr_0 $end
     $var wire 1 %! clk $end
    $upscope $end
    $scope module MPORT_4 $end
     $var wire 1 "w clk $end
     $var wire 10 $! addr $end
     $var wire 1 $% en $end
     $var wire 32 %2 data $end
    $upscope $end
  $upscope $end
$upscope $end
$enddefinitions $end
$dumpvars
b0000000000 $Q
0#D
0=
b00000000000000000000000000000000 $I
b0000000000 C
1"!
0$D
b00000000000000000000000000000000 #6
b00000000000000000000000000000000 r
0"P
0#1
b00000000000000000000000000000000 "#
b00 $g
0"v
0#W
b00000000000000000000000000000000 "I
0m
b00000000000000000000000000000000 Q
b0000000000 %9
b00 "(
0$f
0~
0"r
0#S
0$4
b00000000000000000000000000000000 b
b0000000000 "2
b00000000000000000000000000000000 #w
0#!
b00000000000000000000000000000000 E
0/
b00000000000000000000000000000000 "y
b00000000000000000000000000000000 $;
b00000000000000000000000000000000 "\
b00000000000000000000000000000000 "G
b00000000000000000000000000000000 #=
b00000000000000000000000000000000 "*
0#O
1#T
0]
0"Q
0#2
b00000000000000000000000000000000 $T
b00 I
b00000000000000000000000000000000 $L
b00000000000000000000000000000000 %5
0H
b00000000000000000000000000000000 "X
b00000000000000000000000000000000 #$
b00 #-
0$X
0#b
0"l
0#M
0$C
0"d
0#0
0#E
0$&
b00000000000000000000000000000000 T
0>
b0000000000 $c
0$q
0#s
0"}
1#c
0#^
0$"
0#,
b00000000000000000000000000000000 e
0O
0"C
b00000000000000000000000000000000 %'
0".
b00000000000000000000000000000000 #H
b0000000000 %#
b0000000000 "N
b0000000000 #'
0"?
b00000000000000000000000000000000 "c
b00000000000000000000000000000000 "1
b0000000000 $!
b0000000000 $r
0?
b00000000000000000000000000000000 $K
0#m
0$N
0%/
0"o
b00000000000000000000000000000000 "W
b00000000000000000000000000000000 #8
0$1
b00000000000000000000000000000000 _
b00000000000000000000000000000000 -
b00000000000000000000000000000000 $8
0$|
0$t
0#~
b00000000000000000000000000000000 $G
b00000000000000000000000000000000 %(
0$_
0$B
0"k
b00000000000000000000000000000000 #4
0#L
0Z
0#/
0"9
b0000000000 $b
0#@
b0000000000 q
0N
b00000000000000000000000000000000 %;
0"~
0#_
0$@
0%!
b0000000000 $,
b0000000000 "b
0|
1"`
0$n
b0000000000 ;
b0000000000 &
0#p
b00000000000000000000000000000000 .
0"z
0"]
0"Y
b00 $)
b0000000000 #o
1l
0#`
0%"
b00000000000000000000000000000000 o
b00000000000000000000000000000000 $z
0#.
0Y
1:
b00000000000000000000000000000000 $e
b00000000000000000000000000000000 $H
0'
b00000000000000000000000000000000 "q
b00000000000000000000000000000000 #R
b00000000000000000000000000000000 $+
b00000000000000000000000000000000 #5
b0000000000 J
0<
0n
b0000000000 #9
1%8
0#\
b00000000000000000000000000000000 $v
0#*
1$%
0M
08
b00000000000000000000000000000000 %%
0",
b00000000000000000000000000000000 $/
0#{
b00000000000000000000000000000000 #F
b0000000000 [
b00000000000000000000000000000000 "3
0$m
0$P
0#Z
0%1
0h
0$3
1"a
b00000000000000000000000000000000 a
b00000000000000000000000000000000 L
0K
0#(
1w
0%-
0y
0#N
0\
0G
0";
b00000000000000000000000000000000 @
b00000000000000000000000000000000 +
b00000000000000000000000000000000 "t
b00000000000000000000000000000000 #U
0*
b00000000000000000000000000000000 "B
1$
b00000000000000000000000000000000 #n
0""
b00000000000000000000000000000000 %0
b00000000000000000000000000000000 "p
b00000000000000000000000000000000 #Q
b00000000000000000000000000000000 $2
1$A
1"M
0$p
0#z
0$[
1$`
b0000000000 #l
b0000000000 $M
0"|
0"g
0$>
b00000000000000000000000000000000 $w
0"J
0#+
b00000000000000000000000000000000 #d
b00000000000000000000000000000000 %&
0$l
0#v
0$W
0$O
0$:
b00000000000000000000000000000000 #A
b00000000000000000000000000000000 }
b00000000000000000000000000000000 $s
0#<
b00000000000000000000000000000000 `
b00000000000000000000000000000000 6
05
0")
b0000000000 "{
0x
b00000 p
0F
b00000000000000000000000000000000 %3
0%.
b00000000000000000000000000000000 $5
1$~
1#k
b0000000000 z
1"m
0${
0W
b0000000000 3
0$^
0#h
0%*
b00000000000000000000000000000000 #P
0%
0"j
0#K
0"U
b00000000000000000000000000000000 "R
b00000000000000000000000000000000 "=
0"8
b0000000000 $a
0$o
0#y
0$Z
0$E
b00000000000000000000000000000000 #a
0!
0$(
b00000000000000000000000000000000 k
b00000000000000000000000000000000 V
0"4
b00000000000000000000000000000000 9
b0000000000 #|
0"w
0#X
0{
b0000000000 "7
0$9
0"E
0#&
1"_
b00000000000000000000000000000000 $U
b00000000000000000000000000000000 %6
0#;
12
b00000000000000000000000000000000 $#
b00000000000000000000000000000000 "L
b00000000000000000000000000000000 "/
0$J
0%+
0#7
1"[
0$i
00
b00000000000000000000000000000000 %2
b00000000000000000000000000000000 $<
0(
0"u
0#V
0$7
b00000000000000000000000000000000 #>
b00000000000000000000000000000000 )
b00000000000000000000000000000000 "@
b00000000000000000000000000000000 "+
b00000000000000000000000000000000 "H
b0000000000 #:
b00 "f
0#g
0%)
0u
0#J
0"i
0"T
1"n
b00000000000000000000000000000000 D
1$0
b00000000000000000000000000000000 "<
b0000000000 %,
0#x
1#}
0$Y
0%:
0"e
0$'
b00000000000000000000000000000000 j
0i
b00000000000000000000000000000000 $u
0#)
b00 U
07
b00000000000000000000000000000000 %$
b00000000000000000000000000000000 $.
0"
b00000000000000000000000000000000 "O
b00 "$
0#B
1#G
0P
0"D
b00000000000000000000000000000000 $\
0"'
b00000000000000000000000000000000 "h
b00000000000000000000000000000000 #I
b00000000000000000000000000000000 $?
b00000000000000000000000000000000 "K
b0000000000 R
0$}
0$h
0#r
0$S
0%4
0#j
0$6
b00000 #t
1v
0##
01
0"%
b00000000000000000000000000000000 $=
0$y
b0000000000 "&
0$d
0#f
0t
0$*
0"S
0">
b00000000000000000000000000000000 X
0B
0"6
b00000000000000000000000000000000 "Z
b0000000000 #i
b0000000000 $-
1f
14
0S
b00000000000000000000000000000000 "V
b0000000000 $x
b0000000000 $F
b0000000000 #3
1#[
0d
0$k
0#u
0$V
0%7
b0000000000 #
b00000000000000000000000000000000 #]
0#C
0$$
b00000000000000000000000000000000 g
b00000000000000000000000000000000 $]
0"0
b00000000000000000000000000000000 "-
0#q
b00000000000000000000000000000000 "x
b00000000000000000000000000000000 #Y
0$R
0"s
0"^
b00000000000000000000000000000000 "F
0#?
b00000000000000000000000000000000 c
0"A
0#"
b0000000000 $j
0#e
0s
0^
b0000000000 #%
0A
0,
1":
0"5
$end
#0
1#?
1<
1$6
1",
1"A
b01 "$
1$k
1$N
1/
1$O
1y
1"i
1%*
1"?
1$}
1^
b01 I
1"9
1$C
1t
1#x
1$Y
1#N
1u
1#1
b01 "f
1"Q
1#z
1Y
1#e
b01 $)
1x
1"}
b01 #-
1%"
b01 U
1s
b01 "(
1$n
1W
1"z
1$o
1$4
b01 $g
1#S
1#\
1n
#1
1#j
1$i
1%.
1#O
1"o
1$1
1%)
1#g
1"U
1*
1#.
1"8
1|
1#M
1A
1"l
1%
1#*
1Z
1%!
1$@
1#u
1!
1#X
1"w
1$$
1"
1$W
1$X
1#<
1%1
1#q
1$R
#6
0#j
0$6
0",
0$i
0%.
0#O
0"o
0$1
0%)
0#g
0"U
0*
0#.
0"8
0"9
0#M
0A
0|
0"l
0%
0Y
0#*
0Z
0%!
0$@
0#u
0!
0#X
0"w
0$$
0"
0$W
0$X
0#<
0%1
0$n
0#q
0$R
#11
1#j
1$i
1%.
1#O
1"o
1$1
1%)
1#g
1"U
1*
1#.
1"8
1|
1#M
1A
1"l
1%
1#*
1Z
1%!
1$@
1#u
1!
1#X
1"w
1$$
1"
1$W
1$X
1#<
1%1
1#q
1$R
#16
0#j
0$i
0%.
0#O
0"o
0$1
0%)
0#g
0"U
0*
0#.
0"8
0|
0#M
0A
0"l
0%
0#*
0Z
0%!
0$@
0#u
0!
0#X
0"w
0$$
0"
0$W
0$X
0#<
0%1
0#q
0$R
#21
1#j
1$i
1%.
1#O
1"o
1$1
1%)
1#g
1"U
1*
1#.
1"8
1|
1#M
1A
1"l
1%
1#*
1Z
1%!
1$@
1#u
1!
1#X
1"w
1$$
1"
1$W
1$X
1#<
1%1
1#q
1$R
#26
1#r
0#j
b0000000110 $b
0%.
0#O
1"Y
b0000000110 #:
1#f
1"j
0"U
0*
1#K
0#.
0"8
b00000000000000000000000000000100 %$
0#M
0A
0"l
1$&
b00000000000000000000000000001001 $w
b0000000110 "2
b00000000000000000000000000001001 #d
b00000000000000000000000000000111 X
1$(
b0000000110 &
0#*
0Z
b00000000000000000000000000000100 $?
0#u
1%7
0#X
0"w
0$$
0"
1#C
0$X
b00000000000000000000000000001001 #w
0%1
b0000000110 #o
0#q
0$R
b00000000000000000000000000001000 %3
1#"
0$i
b0000000110 R
b0000000110 #9
1~
1";
b0000000110 "&
0"o
0$1
b00000000000000000000000000001000 "=
0%)
0#g
b00000000000000000000000000000111 "q
1F
b00000000000000000000000000000100 $+
1"T
b0000000110 z
1#~
b0000000110 #i
0|
b0000000110 $a
0%
b00000000000000000000000000000111 "3
b0000000110 $F
1'
1#+
b0000000110 $r
b0000000110 #|
b00110 p
b00110 #t
0%!
0$@
0!
b0000000110 #%
b00000000000000000000000000001000 "/
0$W
1$:
0#<
b0000000110 #'
#31
b0000000110 %,
1#j
b0000000110 $!
b0000000110 $j
1"%
b0000000110 #l
b0000000110 $M
1%.
b00000000000000000000000000000111 6
1#O
b00000000000000000000000000001001 j
1$^
b0000000110 $,
1"U
1*
1#.
1"8
0$C
1#M
1A
1"l
b00000000000000000000000000001000 `
b0000000110 C
1#*
1"4
1Z
1#^
1$"
b00000000000000000000000000001000 $s
b0000000110 q
1#u
1#X
1"w
1$$
b0000000110 "b
1"
1$9
b0000000110 %9
1$X
1%1
b00000000000000000000000000001000 #=
b00000000000000000000000000001000 "\
1#q
b0000000110 "{
1$R
b0000000110 ;
b0000000110 3
1$i
b00000000000000000000000000001000 $L
b0000000110 J
b00000000000000000000000000001000 "X
1"C
0";
b0000000110 $c
1"o
1$1
0/
b0000000110 #3
1%)
1#g
b0000000110 "7
1%+
b0000000110 %#
b0000000110 $-
b0000000110 "N
1|
b00000000000000000000000000001000 $v
0#x
0$Y
b00000000000000000000000000001000 #F
1%
b0000000110 $x
1"J
b00000000000000000000000000000100 "-
b0000000110 [
1%!
1$@
1>
1!
1$W
b10 U
0$:
b00000000000000000000000000001000 #Y
b0000000110 #
1#<
b00000000000000000000000000001000 "1
b0000000110 $Q
1#p
#36
0#j
0$i
0%.
0#O
0"o
0$1
0%)
0#g
0"U
0*
0#.
0"8
0|
0#M
0A
0"l
0%
0#*
0Z
0%!
0$@
0#u
0!
0#X
0"w
0$$
0"
0$W
0$X
0#<
0%1
0#q
0$R
#41
1#j
1$i
b00000000000000000000000000001000 $T
1##
1%.
1#O
b00000000000000000000000000001000 L
1"o
1$1
b00000000000000000000000000001000 #P
1#;
b00000000000000000000000000001000 "p
1%)
1#g
11
1"U
0%+
1*
1#.
1"8
1$C
1#M
1A
1|
1"l
1%
b10 "f
1#*
1Z
0"J
1%!
1$@
1#u
1!
1#X
1"w
1$$
1"
b01 U
1$W
b00000000000000000000000000001000 "x
0s
1$X
1$:
1#<
1%1
0#p
1#q
1$R
#46
0#j
0$i
0%.
0#O
0"o
0$1
0%)
0#g
0"U
0*
0#.
0"8
0|
0#M
0A
0"l
0%
0#*
0Z
0%!
0$@
0#u
0!
0#X
0"w
0$$
0"
0$W
0$X
0#<
0%1
0#q
0$R
#51
1#j
1$i
0##
1%.
1#O
1"o
b00000000000000000000000000001000 "Z
1$1
0#;
b00000000000000000000000000001000 #4
1%)
1#g
01
1"U
1%+
1*
1#.
1"8
0$C
1#M
1A
1|
1"l
1%
b01 "f
1#*
1Z
1"J
b00000000000000000000000000001000 "K
1%!
1$@
b00000000000000000000000000001000 "L
1#u
b00000000000000000000000000001000 T
1!
1#X
1"w
1$$
1"
b10 U
1$W
1s
0$:
1$X
1#<
1%1
b00000000000000000000000000001000 %2
1#p
1#q
1$R
#56
0#j
0$i
0%.
0#O
0"o
0$1
0%)
0#g
0"U
0*
0#.
0"8
0|
0#M
0A
0"l
0%
0#*
0Z
0%!
0$@
0#u
0!
0#X
0"w
0$$
0"
0$W
0$X
0#<
0%1
0#q
0$R
#61
1#j
1$i
1##
1%.
1#O
1"o
1$1
1#;
1%)
1#g
11
1"U
0%+
1*
1#.
1"8
1$C
1#M
1A
1|
1"l
1%
b10 "f
1#*
1Z
0"J
1%!
1$@
1#u
1!
1#X
1"w
1$$
1"
b01 U
1$W
0s
1$:
1$X
1#<
1%1
0#p
1#q
1$R
#66
0#j
0$i
0%.
0#O
0"o
0$1
0%)
0#g
0"U
0*
0#.
0"8
0|
0#M
0A
0"l
0%
0#*
0Z
0%!
0$@
0#u
0!
0#X
0"w
0$$
0"
0$W
0$X
0#<
0%1
0#q
0$R
#71
1#j
1$i
0##
1%.
1#O
1"o
1$1
0#;
1%)
1#g
01
1"U
1%+
1*
1#.
1"8
0$C
1#M
1A
1|
1"l
1%
b01 "f
1#*
1Z
1"J
1%!
1$@
1#u
1!
1#X
1"w
1$$
1"
b10 U
1$W
1s
0$:
1$X
1#<
1%1
1#p
1#q
1$R
#76
0#j
0$i
0%.
0#O
0"o
0$1
0%)
0#g
0"U
0*
0#.
0"8
0|
0#M
0A
0"l
0%
0#*
0Z
0%!
0$@
0#u
0!
0#X
0"w
0$$
0"
0$W
0$X
0#<
0%1
0#q
0$R
